%YAML 1.1
%TAG !u! tag:unity3d.com,2011:
--- !u!1045 &1
EditorBuildSettings:
  m_ObjectHideFlags: 0
  serializedVersion: 2
  m_Scenes:
  - enabled: 1
    path: Assets/Scenes/Start.unity
  - enabled: 1
    path: Assets/Scenes/Level_1_/Level_1_.unity
  - enabled: 1
    path: Assets/Scenes/Level_1_/Room_1_1.unity
  - enabled: 1
    path: Assets/Scenes/Level_1_/Room_1_2.unity
  - enabled: 1
    path: Assets/Scenes/Level_1_/Room_1_4.unity
  - enabled: 1
    path: Assets/Scenes/Level_1_/Room_1_3.unity
  - enabled: 1
    path: Assets/Scenes/Level_1_/Room_1_5.unity
  - enabled: 1
    path: Assets/Scenes/Level_2_/Level_2_.unity
  - enabled: 1
    path: Assets/Scenes/Level_2_/Room_2_1.unity
  - enabled: 1
    path: Assets/Scenes/Level_2_/Room_2_2.unity
  - enabled: 1
    path: Assets/Scenes/Level_2_/Room_2_3.unity
  - enabled: 1
    path: Assets/Scenes/Level_2_/Room_2_4.unity
  - enabled: 1
    path: Assets/Scenes/Level_2_/Room_2_5.unity
  - enabled: 1
    path: Assets/Scenes/Level_3_/Level_3_.unity
  - enabled: 1
    path: Assets/Scenes/Level_3_/Room_3_1.unity
  - enabled: 1
    path: Assets/Scenes/Level_3_/Room_3_2.unity
  - enabled: 1
    path: Assets/Scenes/Level_3_/Room_3_3.unity
  - enabled: 1
    path: Assets/Scenes/Level_3_/Room_3_4.unity
  - enabled: 1
    path: Assets/Scenes/Level_3_/Room_3_5.unity
  - enabled: 1
    path: Assets/Scenes/Level_4_/Level_4_.unity
  - enabled: 1
    path: Assets/Scenes/Level_4_/Room_4_1.unity
  - enabled: 1
    path: Assets/Scenes/Level_4_/Room_4_2.unity
  - enabled: 1
    path: Assets/Scenes/Level_4_/Room_4_3.unity
  - enabled: 1
    path: Assets/Scenes/Level_4_/Room_4_4.unity
  - enabled: 1
    path: Assets/Scenes/Level_4_/Room_4_5.unity
  - enabled: 1
    path: Assets/Scenes/Level_5_/Level_5_.unity
  - enabled: 1
    path: Assets/Scenes/Level_5_/Room_5_1.unity
  - enabled: 1
    path: Assets/Scenes/Level_5_/Room_5_2.unity
  - enabled: 1
    path: Assets/Scenes/Level_5_/Room_5_3.unity
  - enabled: 1
    path: Assets/Scenes/Level_5_/Room_5_4.unity
  - enabled: 1
    path: Assets/Scenes/Level_5_/Room_5_5.unity
  - enabled: 1
    path: Assets/Scenes/End_Scene.unity
  - enabled: 1
    path: Assets/Scenes/End.unity
